{
  "v": "5.4.3",
  "fr": 30,
  "ip": 0,
  "op": 60,
  "w": 128,
  "h": 128,
  "nm": "preview",
  "ddd": 0,
  "assets": [
    {
      "id": "comp_0",
      "layers": [
        {
          "ddd": 0,
          "ind": 1,
          "ty": 4,
          "nm": "spinner Outlines",
          "sr": 1,
          "ks": {
            "o": {
              "a": 0,
              "k": 100,
              "ix": 11
            },
            "r": {
              "a": 0,
              "k": 0,
              "ix": 10
            },
            "p": {
              "a": 0,
              "k": [
                64,
                64,
                0
              ],
              "ix": 2
            },
            "a": {
              "a": 0,
              "k": [
                0,
                0,
                0
              ],
              "ix": 1
            },
            "s": {
              "a": 0,
              "k": [
                144,
                144,
                100
              ],
              "ix": 6
            }
          },
          "ao": 0,
          "shapes": [
            {
              "ty": "gr",
              "it": [
                {
                  "ind": 0,
                  "ty": "sh",
                  "ix": 1,
                  "ks": {
                    "a": 0,
                    "k": {
                      "i": [
                        [
                          0,
                          19.882
                        ],
                        [
                          19.882,
                          0
                        ],
                        [
                          0,
                          -19.882
                        ],
                        [
                          -19.882,
                          0
                        ]
                      ],
                      "o": [
                        [
                          0,
                          -19.882
                        ],
                        [
                          -19.882,
                          0
                        ],
                        [
                          0,
                          19.882
                        ],
                        [
                          19.882,
                          0
                        ]
                      ],
                      "v": [
                        [
                          36,
                          0
                        ],
                        [
                          0,
                          -36
                        ],
                        [
                          -36,
                          0
                        ],
                        [
                          0,
                          36
                        ]
                      ],
                      "c": true
                    },
                    "ix": 2
                  },
                  "nm": "Path 1",
                  "mn": "ADBE Vector Shape - Group",
                  "hd": false
                },
                {
                  "ty": "tm",
                  "s": {
                    "a": 1,
                    "k": [
                      {
                        "i": {
                          "x": [
                            0.667
                          ],
                          "y": [
                            1
                          ]
                        },
                        "o": {
                          "x": [
                            0.167
                          ],
                          "y": [
                            0.167
                          ]
                        },
                        "n": [
                          "0p667_1_0p167_0p167"
                        ],
                        "t": 2,
                        "s": [
                          0
                        ],
                        "e": [
                          90
                        ]
                      },
                      {
                        "i": {
                          "x": [
                            0.771
                          ],
                          "y": [
                            1
                          ]
                        },
                        "o": {
                          "x": [
                            0.162
                          ],
                          "y": [
                            0
                          ]
                        },
                        "n": [
                          "0p771_1_0p162_0"
                        ],
                        "t": 32,
                        "s": [
                          90
                        ],
                        "e": [
                          0
                        ]
                      },
                      {
                        "t": 57
                      }
                    ],
                    "ix": 1
                  },
                  "e": {
                    "a": 1,
                    "k": [
                      {
                        "i": {
                          "x": [
                            0.787
                          ],
                          "y": [
                            17.205
                          ]
                        },
                        "o": {
                          "x": [
                            0.321
                          ],
                          "y": [
                            0
                          ]
                        },
                        "n": [
                          "0p787_17p205_0p321_0"
                        ],
                        "t": 32,
                        "s": [
                          100
                        ],
                        "e": [
                          100
                        ]
                      },
                      {
                        "t": 57
                      }
                    ],
                    "ix": 2
                  },
                  "o": {
                    "a": 0,
                    "k": 0,
                    "ix": 3
                  },
                  "m": 1,
                  "ix": 2,
                  "nm": "Trim Paths 1",
                  "mn": "ADBE Vector Filter - Trim",
                  "hd": false
                },
                {
                  "ty": "st",
                  "c": {
                    "a": 0,
                    "k": [
                      0.208,
                      0.682,
                      0.949,
                      1
                    ],
                    "ix": 3
                  },
                  "o": {
                    "a": 0,
                    "k": 100,
                    "ix": 4
                  },
                  "w": {
                    "a": 0,
                    "k": 8,
                    "ix": 5
                  },
                  "lc": 2,
                  "lj": 1,
                  "ml": 10,
                  "ml2": {
                    "a": 0,
                    "k": 10,
                    "ix": 8
                  },
                  "bm": 0,
                  "nm": "Stroke 1",
                  "mn": "ADBE Vector Graphic - Stroke",
                  "hd": false
                },
                {
                  "ty": "tr",
                  "p": {
                    "a": 0,
                    "k": [
                      0,
                      0
                    ],
                    "ix": 2
                  },
                  "a": {
                    "a": 0,
                    "k": [
                      0,
                      0
                    ],
                    "ix": 1
                  },
                  "s": {
                    "a": 0,
                    "k": [
                      100,
                      100
                    ],
                    "ix": 3
                  },
                  "r": {
                    "a": 1,
                    "k": [
                      {
                        "i": {
                          "x": [
                            0.569
                          ],
                          "y": [
                            0.007
                          ]
                        },
                        "o": {
                          "x": [
                            0.202
                          ],
                          "y": [
                            0.359
                          ]
                        },
                        "n": [
                          "0p569_0p007_0p202_0p359"
                        ],
                        "t": 2,
                        "s": [
                          -90
                        ],
                        "e": [
                          0
                        ]
                      },
                      {
                        "i": {
                          "x": [
                            0.703
                          ],
                          "y": [
                            1
                          ]
                        },
                        "o": {
                          "x": [
                            0.318
                          ],
                          "y": [
                            0.187
                          ]
                        },
                        "n": [
                          "0p703_1_0p318_0p187"
                        ],
                        "t": 32,
                        "s": [
                          0
                        ],
                        "e": [
                          270
                        ]
                      },
                      {
                        "t": 55
                      }
                    ],
                    "ix": 6
                  },
                  "o": {
                    "a": 0,
                    "k": 100,
                    "ix": 7
                  },
                  "sk": {
                    "a": 0,
                    "k": 0,
                    "ix": 4
                  },
                  "sa": {
                    "a": 0,
                    "k": 0,
                    "ix": 5
                  },
                  "nm": "Transform"
                }
              ],
              "nm": "Group 1",
              "np": 3,
              "cix": 2,
              "bm": 0,
              "ix": 1,
              "mn": "ADBE Vector Group",
              "hd": false
            }
          ],
          "ip": 0,
          "op": 60,
          "st": 0,
          "bm": 0
        }
      ]
    }
  ],
  "layers": [
    {
      "ddd": 0,
      "ind": 1,
      "ty": 0,
      "nm": "btn_record_64_loading_t@2x",
      "refId": "comp_0",
      "sr": 1,
      "ks": {
        "o": {
          "a": 0,
          "k": 100,
          "ix": 11
        },
        "r": {
          "a": 0,
          "k": 0,
          "ix": 10
        },
        "p": {
          "a": 0,
          "k": [
            64,
            64,
            0
          ],
          "ix": 2
        },
        "a": {
          "a": 0,
          "k": [
            64,
            64,
            0
          ],
          "ix": 1
        },
        "s": {
          "a": 0,
          "k": [
            40,
            40,
            100
          ],
          "ix": 6
        }
      },
      "ao": 0,
      "w": 128,
      "h": 128,
      "ip": 0,
      "op": 60,
      "st": 0,
      "bm": 0
    }
  ],
  "markers": []
}